Data Visualisation in R
…
<!-- *********** NEW SLIDE ************** -->
---

class: bg-main1 middle center

.pull.left[.pad1[.font2[

```r
beaches <- here("data","sydneybeaches2.csv") %>% read_csv() 
beaches
```

```
## # A tibble: 3,690 x 14
##    council  long   lat date       site  beachbugs    id region rain_mm
##    <chr>   <dbl> <dbl> <date>     <chr>     <dbl> <dbl> <chr>    <dbl>
##  1 Randwi~  151. -33.9 2013-01-02 Clov~        19    25 Sydne~     0  
##  2 Randwi~  151. -33.9 2013-01-06 Clov~         3    25 Sydne~     0  
##  3 Randwi~  151. -33.9 2013-01-12 Clov~         2    25 Sydne~     0  
##  4 Randwi~  151. -33.9 2013-01-18 Clov~        13    25 Sydne~     0  
##  5 Randwi~  151. -33.9 2013-01-30 Clov~         8    25 Sydne~     0.6
##  6 Randwi~  151. -33.9 2013-02-05 Clov~         7    25 Sydne~     0.1
##  7 Randwi~  151. -33.9 2013-02-11 Clov~        11    25 Sydne~     8  
##  8 Randwi~  151. -33.9 2013-02-23 Clov~        97    25 Sydne~     7.2
##  9 Randwi~  151. -33.9 2013-03-07 Clov~         3    25 Sydne~     0  
## 10 Randwi~  151. -33.9 2013-03-25 Clov~         0    25 Sydne~     0  
## # ... with 3,680 more rows, and 5 more variables: temp_airport <dbl>,
## #   year <dbl>, month <dbl>, day <dbl>, season <chr>
```
…
frames_small
```
]]]
]]

.column.bg-main3[.content.vtop.center[
.pull.left[.pad1[.font2[
# The data:

```
## # A tibble: 225 x 5
##       id gender   age condition response
##    <dbl> <chr>  <dbl> <chr>        <dbl>
##  1     1 male      36 category      5.33
##  2     2 male      46 category      7.05
##  3     3 female    33 property      4.86
##  4     4 female    71 property      3.86
##  5     5 female    23 property      9   
##  6     6 female    31 category      7.90
##  7     7 male      23 property      3.76
##  8     8 female    31 property      4   
##  9     9 female    37 category      3.38
## 10    10 female    46 category      5.86
## # ... with 215 more rows
```
…
frames_mean
```

- use dplyr to add to the data
- use lsr::ciMean to get a CI95
- use dplyr to add to the data

]]]
]]
--
.column.bg-main3[.content.vtop.center[
.pad1[.font2[

```
## # A tibble: 42 x 6
## # Groups:   condition, sample_size [6]
##    condition sample_size test_item  resp lower upper
##    <chr>     <chr>           <dbl> <dbl> <dbl> <dbl>
##  1 category  large               1  7.60  7.16  8.04
##  2 category  large               2  7.51  7.14  7.88
##  3 category  large               3  6.39  5.95  6.84
##  4 category  large               4  5.39  4.86  5.93
##  5 category  large               5  4.72  4.13  5.30
##  6 category  large               6  4.43  3.79  5.07
##  7 category  large               7  4.18  3.53  4.82
##  8 category  medium              1  7.32  6.85  7.78
##  9 category  medium              2  7.17  6.80  7.54
## 10 category  medium              3  5.98  5.54  6.42
## # ... with 32 more rows
```
…
