Data Visualisation in R
…
class: bg-main1 middle center

.pull.left[.pad1[.font2[

```r
# load data
beaches <- read_csv(here("data","sydneybeaches3.csv")) 

# show data
beaches
```

```
## # A tibble: 344 x 12
##    date        year month   day season rainfall temperature enterococci
##    <date>     <dbl> <dbl> <dbl>  <dbl>    <dbl>       <dbl>       <dbl>
##  1 2013-01-02  2013     1     2      1      0          23.4         6.7
##  2 2013-01-06  2013     1     6      1      0          30.3         2  
##  3 2013-01-12  2013     1    12      1      0          31.4        69.1
##  4 2013-01-18  2013     1    18      1      0          46.4         9  
##  5 2013-01-24  2013     1    24      1      0          27.5        33.9
##  6 2013-01-30  2013     1    30      1      0.6        26.6        26.5
##  7 2013-02-05  2013     2     5      1      0.1        25.7        66.9
##  8 2013-02-11  2013     2    11      1      8          22.2       118. 
##  9 2013-02-17  2013     2    17      1     13.6        26.3        75  
## 10 2013-02-23  2013     2    23      1      7.2        24.8       311. 
## # ... with 334 more rows, and 4 more variables: day_num <dbl>,
## #   month_num <dbl>, month_name <chr>, season_name <chr>
```
…
